/Applications/tomcat/webapps/8/src/main/java/com/denis_kurmashev/Index.java
/Applications/tomcat/webapps/8/src/main/java/com/denis_kurmashev/User.java
/Applications/tomcat/webapps/8/src/main/java/com/denis_kurmashev/Test.java
